<svg width="144px" height="141px" viewBox="0 0 144 141" version="1.1" xmlns="http://www.w3.org/2000/svg"
     xmlns:xlink="http://www.w3.org/1999/xlink">
    <!-- Generator: Sketch 51.2 (57519) - http://www.bohemiancoding.com/sketch -->
    <desc>Created with Sketch.</desc>
    <defs></defs>
    <g id="Page-1" stroke="none" stroke-width="1" fill="none" fill-rule="evenodd">
        <g id="tel-pl">
            <path d="M71.1,141 C109.9,141 141.3,109.6 141.3,70.8 C141.3,32 109.9,0.6 71.1,0.6 C32.3,0.6 0.9,32 0.9,70.8 C0.9,109.6 32.4,141 71.1,141 Z"
                  id="Shape" fill="#00C7FF" fill-rule="nonzero"></path>
            <g id="Group" transform="translate(102.000000, 106.000000)" fill-rule="nonzero">
                <rect id="rect4064" fill="#F5F5F5" x="0.5" y="0.2" width="41" height="13.7"></rect>
                <rect id="rect4066" fill="#F00000" x="0.5" y="13.9" width="41" height="13.7"></rect>
            </g>
            <g id="call_2_" transform="translate(32.000000, 34.000000)" stroke="#FFFFFF" stroke-linecap="round"
               stroke-linejoin="round" stroke-width="4">
                <path d="M1,4.4 C0.4,5.5 0.4,7 0.7,8.6 C3.5,24.5 11.2,38.7 22,49.5 C32.8,60.3 47.4,68.3 62.8,70.7 C64.4,70.9 65.9,71.1 67,70.4 C67.4,70.2 67.9,69.8 68,69.1 L70.5,57.8 C70.7,56.8 70.4,55.8 69.5,55 C69.1,54.6 60.6,51.5 56.5,49.6 C54.8,48.8 52.9,49.2 52.1,50.6 L50.5,53.3 C50,54.2 49.1,54.9 48,55.2 C44,56.2 31.8,44.9 29.1,42.3 C26.3,39.5 14.7,27 15.7,23 C16,22 16.6,21.1 17.6,20.5 C20,19.1 19.3,19.5 20.3,18.9 C21.7,18.1 22.1,16.1 21.3,14.5 C19.5,10.9 18.5,7.5 17.4,3.6 C16.9,1.9 15.3,0.6 13.6,0.9 C13.6,0.9 13.4,0.9 2.2,3.4 C1.6,3.6 1.2,4 1,4.4 Z"
                      id="Shape"></path>
                <path d="M35.5,10.2 C47.8,10.2 57.8,20.2 57.8,32.5" id="Shape"></path>
                <path d="M35.5,0.7 C53.1,0.7 67.3,14.9 67.3,32.5" id="Shape"></path>
            </g>
        </g>
    </g>
</svg>